[
  [   5 ,  4 ,null,null,null,null,  1 ,  2 ,null],
  [ null,null,  7 ,  1 ,null,null,null,null,null],
  [   8 ,null,null,  5 ,null,  4 ,null,null,  9 ],
  [ null,  9 ,null,null,null,null,null,  5 ,  4 ],
  [ null,null,null,  9 ,null,  8 ,null,null,null],
  [   4 ,  8 ,null,null,null,null,null,  9 ,null],
  [   6 ,null,null,  8 ,null,  2 ,null,null,  3 ],
  [ null,null,null,null,null,  3 ,  9 ,null,null],
  [ null,  3 ,  9 ,null,null,null,null,  8 ,  6 ]
]